[gd_scene load_steps=5 format=2]

[ext_resource path="res://blk.png" type="Texture" id=1]
[ext_resource path="res://barge.gd" type="Script" id=2]
[ext_resource path="res://BigFont.tres" type="DynamicFont" id=3]

[sub_resource type="RectangleShape2D" id=1]
extents = Vector2( 150, 100 )

[node name="barge" type="KinematicBody2D"]
script = ExtResource( 2 )

[node name="CollisionShape2D" type="CollisionShape2D" parent="."]
shape = SubResource( 1 )

[node name="sprite" type="Sprite" parent="."]
scale = Vector2( 3, 2 )
texture = ExtResource( 1 )

[node name="Label" type="Label" parent="."]
margin_left = -60.0
margin_top = -300.0
margin_right = 80.0
margin_bottom = -257.0
custom_fonts/font = ExtResource( 3 )
text = "Barge X"
__meta__ = {
"_edit_use_anchors_": false
}
